{
  "images" : [
    {
      "idiom" : "universal",
      "scale" : "1x",
      "filename" : "3034115-slide-i-3-the-monkey-selfie-question-2-1-1.jpg"
    },
    {
      "idiom" : "universal",
      "scale" : "2x",
      "filename" : "3034115-slide-i-3-the-monkey-selfie-question-2-1.jpg"
    },
    {
      "idiom" : "universal",
      "scale" : "3x",
      "filename" : "3034115-slide-i-3-the-monkey-selfie-question-2-1-2.jpg"
    }
  ],
  "info" : {
    "version" : 1,
    "author" : "xcode"
  }
}